…
Objectif
--------

-   Vous exercer à la manipulation des données sur le jeu de données `biometry`.

Procédure
---------

Reprenez votre projet sur l'étude du zooplancton et complétez votre rapport, ou ouvrez un document R Markdown séparé pour répondre aux challenges suivants. Utilisez la version *complètement* francisée du jeu de données, importé à l'aide de l'instruction :

``` r
(biometry <- read("biometry", package = "BioDataScience", lang = "FR"))
```

    ## # A tibble: 395 x 7
    ##    gender day_birth  weight height wrist year_measure   age
    ##    <fct>  <date>      <dbl>  <dbl> <dbl>        <dbl> <dbl>
    ##  1 H      1995-03-11     69    182  15           2013    18
    ##  2 H      1998-04-03     74    190  16           2013    15
    ##  3 H      1967-04-04     83    185  17.5         2013    46
    ##  4 H      1994-02-10     60    175  15           2013    19
    ##  5 F      1990-12-02     48    167  14           2013    23
    ##  6 F      1994-07-15     52    179  14           2013    19
    ##  7 F      1971-03-03     72    167  15.5         2013    42
    ##  8 F      1997-06-24     74    180  16           2013    16
    ##  9 H      1972-10-26    110    189  19           2013    41
    ## 10 H      1945-03-15     82    160  18           2013    68
    ## # ... with 385 more rows
…
